{
  "timeZone": "Asia/Calcutta",
  "dependencies": {
    "enabledAdvancedServices": [
      {
        "userSymbol": "Drive",
        "serviceId": "drive",
        "version": "v2"
      }
    ],
    "libraries": [
      {
        "userSymbol": "OAuth2",
        "libraryId":
          "1B7FSrk5Zi6L1rSxxTDgDEUsPzlukDsi4KGuTMorsTQHhGBzBkMun4iDF",
        "version": "26"
      }
    ]
  },
  "webapp": {
    "access": "ANYONE",
    "executeAs": "USER_ACCESSING"
  },
  "exceptionLogging": "STACKDRIVER",
  "oauthScopes": [
    "https://www.googleapis.com/auth/drive",
    "https://www.googleapis.com/auth/script.external_request",
    "https://www.googleapis.com/auth/script.scriptapp",
    "https://www.googleapis.com/auth/script.send_mail",
    "https://www.googleapis.com/auth/script.storage",
    "https://www.googleapis.com/auth/script.webapp.deploy",
    "https://www.googleapis.com/auth/spreadsheets",
    "https://www.googleapis.com/auth/userinfo.email"
  ]
}
